+----------------------------------------------------------+
| FACILITY Teta u stroje 01                                |
+----------------------------------------------------------+
|  Status = BUSY                                           |
|  Time interval = 0 - 345600                              |
|  Number of requests = 20144                              |
|  Average utilization = 0.990842                          |
+----------------------------------------------------------+

+----------------------------------------------------------+
| FACILITY Pripravkar                                      |
+----------------------------------------------------------+
|  Status = not BUSY                                       |
+----------------------------------------------------------+

+----------------------------------------------------------+
| FACILITY Kotouc                                          |
+----------------------------------------------------------+
|  Status = not BUSY                                       |
|  Time interval = 0 - 345600                              |
|  Number of requests = 270                                |
|  Average utilization = 0.140625                          |
+----------------------------------------------------------+
  Input queue 'Kotouc.Q1'
+----------------------------------------------------------+
| QUEUE Q1                                                 |
+----------------------------------------------------------+
|  Time interval = 0 - 345600                              |
|  Incoming  1                                             |
|  Outcoming  1                                            |
|  Current length = 0                                      |
|  Maximal length = 1                                      |
|  Average length = 0.000520833                            |
|  Minimal time = 180                                      |
|  Maximal time = 180                                      |
|  Average time = 180                                      |
+----------------------------------------------------------+

+----------------------------------------------------------+
| QUEUE Fronta na Tetu A                                   |
+----------------------------------------------------------+
|  Time interval = 0 - 345600                              |
|  Incoming  20070                                         |
|  Outcoming  20054                                        |
|  Current length = 16                                     |
|  Maximal length = 27                                     |
|  Average length = 13.025                                 |
|  Minimal time = 2                                        |
|  Maximal time = 448                                      |
|  Average time = 224.376                                  |
|  Standard deviation = 129.308                            |
+----------------------------------------------------------+
+----------------------------------------------------------+
| HISTOGRAM Validace                                       |
+----------------------------------------------------------+
| STATISTIC                                                |
+----------------------------------------------------------+
|  Min = 0                       Max = 95                  |
|  Number of records = 6709                                |
|  Average value = 49.8223                                 |
|  Standard deviation = 7.47295                            |
+----------------------------------------------------------+
|    from    |     to     |     n    |   rel    |   sum    |
+------------+------------+----------+----------+----------+
|      0.000 |      8.000 |       90 | 0.013415 | 0.013415 |
|      8.000 |     16.000 |        0 | 0.000000 | 0.013415 |
|     16.000 |     24.000 |       90 | 0.013415 | 0.026830 |
|     24.000 |     32.000 |       89 | 0.013266 | 0.040095 |
|     32.000 |     40.000 |        0 | 0.000000 | 0.040095 |
|     40.000 |     48.000 |        0 | 0.000000 | 0.040095 |
|     48.000 |     56.000 |     6348 | 0.946192 | 0.986287 |
|     56.000 |     64.000 |       89 | 0.013266 | 0.999553 |
|     64.000 |     72.000 |        0 | 0.000000 | 0.999553 |
|     72.000 |     80.000 |        2 | 0.000298 | 0.999851 |
|     80.000 |     88.000 |        0 | 0.000000 | 0.999851 |
|     88.000 |     96.000 |        1 | 0.000149 | 1.000000 |
|     96.000 |    104.000 |        0 | 0.000000 | 1.000000 |
|    104.000 |    112.000 |        0 | 0.000000 | 1.000000 |
|    112.000 |    120.000 |        0 | 0.000000 | 1.000000 |
|    120.000 |    128.000 |        0 | 0.000000 | 1.000000 |
|    128.000 |    136.000 |        0 | 0.000000 | 1.000000 |
|    136.000 |    144.000 |        0 | 0.000000 | 1.000000 |
|    144.000 |    152.000 |        0 | 0.000000 | 1.000000 |
|    152.000 |    160.000 |        0 | 0.000000 | 1.000000 |
+------------+------------+----------+----------+----------+

