+----------------------------------------------------------+
| FACILITY Teta u stroje 01                                |
+----------------------------------------------------------+
|  Status = not BUSY                                       |
|  Time interval = 0 - 345600                              |
|  Number of requests = 225                                |
|  Average utilization = 0.0110677                         |
+----------------------------------------------------------+

+----------------------------------------------------------+
| FACILITY Teta u stroje 02                                |
+----------------------------------------------------------+
|  Status = not BUSY                                       |
|  Time interval = 0 - 345600                              |
|  Number of requests = 225                                |
|  Average utilization = 0.0110677                         |
+----------------------------------------------------------+

+----------------------------------------------------------+
| FACILITY Teta u stroje 03                                |
+----------------------------------------------------------+
|  Status = not BUSY                                       |
|  Time interval = 0 - 345600                              |
|  Number of requests = 225                                |
|  Average utilization = 0.00976562                        |
+----------------------------------------------------------+

+----------------------------------------------------------+
| FACILITY Pripravkar                                      |
+----------------------------------------------------------+
|  Status = BUSY                                           |
|  Time interval = 0 - 345600                              |
|  Number of requests = 4                                  |
|  Average utilization = 0.993012                          |
+----------------------------------------------------------+

+----------------------------------------------------------+
| FACILITY Kotouc                                          |
+----------------------------------------------------------+
|  Status = BUSY                                           |
|  Time interval = 0 - 345600                              |
|  Number of requests = 3                                  |
|  Average utilization = 0.998264                          |
+----------------------------------------------------------+
  Input queue 'Kotouc.Q1'
+----------------------------------------------------------+
| QUEUE Q1                                                 |
+----------------------------------------------------------+
|  Time interval = 0 - 345600                              |
|  Incoming  1                                             |
|  Outcoming  0                                            |
|  Current length = 1                                      |
|  Maximal length = 1                                      |
|  Average length = 0.988845                               |
+----------------------------------------------------------+

+----------------------------------------------------------+
| QUEUE Fronta na Tetu A                                   |
+----------------------------------------------------------+
|  Time interval = 0 - 345600                              |
|  Incoming  224                                           |
|  Outcoming  224                                          |
|  Current length = 0                                      |
|  Maximal length = 27                                     |
|  Average length = 0.145833                               |
|  Minimal time = 2                                        |
|  Maximal time = 448                                      |
|  Average time = 225                                      |
|  Standard deviation = 129.615                            |
+----------------------------------------------------------+
+----------------------------------------------------------+
| QUEUE Fronta na Tetu B                                   |
+----------------------------------------------------------+
|  Time interval = 0 - 345600                              |
|  Incoming  224                                           |
|  Outcoming  224                                          |
|  Current length = 0                                      |
|  Maximal length = 27                                     |
|  Average length = 0.145833                               |
|  Minimal time = 2                                        |
|  Maximal time = 448                                      |
|  Average time = 225                                      |
|  Standard deviation = 129.615                            |
+----------------------------------------------------------+
+----------------------------------------------------------+
| QUEUE Fronta na Tetu C                                   |
+----------------------------------------------------------+
|  Time interval = 0 - 345600                              |
|  Incoming  224                                           |
|  Outcoming  224                                          |
|  Current length = 0                                      |
|  Maximal length = 45                                     |
|  Average length = 0.21875                                |
|  Minimal time = 3                                        |
|  Maximal time = 672                                      |
|  Average time = 337.5                                    |
|  Standard deviation = 194.422                            |
+----------------------------------------------------------+
+----------------------------------------------------------+
| HISTOGRAM Validace                                       |
+----------------------------------------------------------+
| STATISTIC                                                |
+----------------------------------------------------------+
|  Min = 2                       Max = 180                 |
|  Number of records = 75                                  |
|  Average value = 55.1067                                 |
+----------------------------------------------------------+
|    from    |     to     |     n    |   rel    |   sum    |
+------------+------------+----------+----------+----------+
|      0.000 |     10.000 |        2 | 0.026667 | 0.026667 |
|     10.000 |     20.000 |        0 | 0.000000 | 0.026667 |
|     20.000 |     30.000 |        0 | 0.000000 | 0.026667 |
|     30.000 |     40.000 |        0 | 0.000000 | 0.026667 |
|     40.000 |     50.000 |       30 | 0.400000 | 0.426667 |
|     50.000 |     60.000 |       29 | 0.386667 | 0.813333 |
|     60.000 |     70.000 |        2 | 0.026667 | 0.840000 |
|     70.000 |     80.000 |        7 | 0.093333 | 0.933333 |
|     80.000 |     90.000 |        3 | 0.040000 | 0.973333 |
|     90.000 |    100.000 |        0 | 0.000000 | 0.973333 |
|    100.000 |    110.000 |        0 | 0.000000 | 0.973333 |
|    110.000 |    120.000 |        0 | 0.000000 | 0.973333 |
|    120.000 |    130.000 |        0 | 0.000000 | 0.973333 |
|    130.000 |    140.000 |        0 | 0.000000 | 0.973333 |
|    140.000 |    150.000 |        0 | 0.000000 | 0.973333 |
|    150.000 |    160.000 |        1 | 0.013333 | 0.986667 |
|    160.000 |    170.000 |        0 | 0.000000 | 0.986667 |
|    170.000 |    180.000 |        0 | 0.000000 | 0.986667 |
|    180.000 |    190.000 |        1 | 0.013333 | 1.000000 |
|    190.000 |    200.000 |        0 | 0.000000 | 1.000000 |
+------------+------------+----------+----------+----------+

